Goal kick - 0-80
Move squat left - 81-141
Move squat right - 142-202
Save overhead - 203-273
Save aerial left - 274-394
Save aerial right - 395-515
Save mid-air - 516-636
Save mid-air - 637-757
Throw - 758-934
Another throw - 935-1059
